# 3ds Max Wavefront OBJ Exporter v0.97b - (c)2007 guruware
# File Created: 26.01.2018 17:06:01

#
# object obj_03
#

v  6.0298 -1.6282 -4.5691
v  6.0298 -1.7170 0.7048
v  -6.0298 -1.7170 0.7048
v  -6.0298 -1.6282 -4.5691
v  -6.0298 3.4057 -4.5691
v  -6.0298 3.4057 11.0338
v  6.0298 3.4057 11.0338
v  6.0298 3.4057 -4.5691
v  -6.1024 -1.7962 10.7079
v  -6.1024 -1.7962 11.0338
v  -6.1024 0.1418 11.0213
v  -6.1024 0.1418 -4.5566
v  -6.1024 -1.5556 -4.5691
v  -6.1024 -1.6444 0.7048
v  6.0298 -1.7962 11.1064
v  6.0173 0.1418 11.1064
v  -6.0173 0.1418 11.1064
v  -6.0298 -1.7962 11.1064
v  6.1024 -1.6444 0.7048
v  6.1024 -1.5556 -4.5691
v  6.1024 0.1418 -4.5566
v  6.1024 0.1418 11.0213
v  6.1024 -1.7962 11.0338
v  6.1024 -1.7962 10.7079
v  -6.0298 -1.5556 -4.6417
v  -6.0173 0.1418 -4.6417
v  6.0173 0.1418 -4.6417
v  6.0298 -1.5556 -4.6417
v  6.0298 -1.8688 11.0338
v  -6.0298 -1.8688 11.0338
v  -6.0298 -1.8688 10.7079
v  6.0298 -1.8688 10.7079
v  -6.0298 -1.7170 0.7774
v  -5.9320 -1.7170 0.8752
v  -5.9320 -1.8688 10.5376
v  6.0298 -1.7170 0.7774
v  5.9320 -1.7170 0.8752
v  5.9320 -1.8688 10.5376
v  -6.4100 0.5274 11.3414
v  -6.4100 0.5274 -4.8768
v  -6.4100 0.2144 -4.8768
v  -6.4100 0.2144 11.3414
v  6.3374 0.5274 11.4140
v  -6.3374 0.5274 11.4140
v  -6.3374 0.2144 11.4140
v  6.3374 0.2144 11.4140
v  6.4100 0.5274 -4.8768
v  6.4100 0.5274 11.3414
v  6.4100 0.2144 11.3414
v  6.4100 0.2144 -4.8768
v  -6.3374 0.5274 -4.9493
v  6.3374 0.5274 -4.9493
v  6.3374 0.2144 -4.9493
v  -6.3374 0.2144 -4.9493
v  -6.1024 3.3331 11.0338
v  -6.1024 3.3331 -4.5691
v  -6.1024 0.6000 -4.5566
v  -6.1024 0.6000 11.0213
v  6.0298 3.3331 11.1064
v  -6.0298 3.3331 11.1064
v  -6.0173 0.6000 11.1064
v  6.0173 0.6000 11.1064
v  6.1024 3.3331 -4.5691
v  6.1024 3.3331 11.0338
v  6.1024 0.6000 11.0213
v  6.1024 0.6000 -4.5566
v  -6.0298 3.3331 -4.6417
v  6.0298 3.3331 -4.6417
v  6.0173 0.6000 -4.6417
v  -6.0173 0.6000 -4.6417
v  -6.3374 0.1418 11.2388
v  -6.3374 0.1418 -4.7741
v  6.2348 0.1418 11.3414
v  -6.2348 0.1418 11.3414
v  6.3374 0.1418 -4.7741
v  6.3374 0.1418 11.2388
v  -6.2348 0.1418 -4.8768
v  6.2348 0.1418 -4.8768
v  -6.3374 0.6000 -4.7741
v  -6.3374 0.6000 11.2388
v  6.2348 0.6000 -4.8768
v  -6.2348 0.6000 -4.8768
v  6.3374 0.6000 11.2388
v  6.3374 0.6000 -4.7741
v  -6.2348 0.6000 11.3414
v  6.2348 0.6000 11.3414
v  -5.8594 -1.7962 10.4650
v  -5.8594 -1.6444 0.9478
v  5.8594 -1.6444 0.9478
v  5.8594 -1.7962 10.4650
# 90 vertices

vn 0.0000 -0.9999 -0.0168
vn 0.0000 1.0000 -0.0000
vn -1.0000 0.0000 -0.0000
vn -0.0000 0.0000 1.0000
vn 1.0000 0.0000 0.0000
vn 0.0000 0.0000 -1.0000
vn 0.0000 -1.0000 0.0000
vn -0.0058 -0.9999 -0.0155
vn 0.0000 -1.0000 -0.0000
vn 0.0058 -0.9999 -0.0155
vn -0.0000 -1.0000 -0.0000
vn 0.0000 1.0000 0.0000
vn -0.5774 -0.5774 -0.5773
vn -0.5773 -0.5773 0.5774
vn 0.5774 -0.5774 -0.5773
vn 0.5773 -0.5773 0.5774
vn -0.5774 0.5774 -0.5774
vn -0.5774 0.5774 0.5774
vn 0.5774 0.5774 -0.5774
vn 0.5774 0.5774 0.5774
vn 0.7071 -0.7071 0.0000
vn -0.7071 -0.7071 -0.0000
vn -0.3574 -0.8629 -0.3574
vn -0.3574 -0.8629 0.3574
vn 0.3574 -0.8629 0.3574
vn 0.3574 -0.8629 -0.3574
vn -0.3574 0.8629 0.3574
vn -0.3574 0.8629 -0.3574
vn 0.3574 0.8629 -0.3574
vn 0.3574 0.8629 0.3574
vn 0.0000 -0.7071 -0.7071
vn 0.7071 -0.7071 -0.0119
vn -0.0000 -0.7071 0.7071
vn -0.7071 0.7071 -0.0000
vn -0.0000 0.7071 0.7071
vn 0.7071 0.7071 0.0000
vn 0.0000 0.7071 -0.7071
vn -0.7071 0.0045 0.7071
vn -0.7071 -0.0032 -0.7071
vn 0.7071 0.0045 0.7071
vn 0.7071 0.0052 -0.7071
vn -0.7044 -0.7098 -0.0108
vn 0.7044 -0.7098 -0.0108
vn -0.7071 -0.7071 -0.0119
vn 0.7071 -0.7071 -0.0112
vn -0.7071 -0.7071 -0.0112
vn -0.7071 0.0000 0.7071
vn -0.7071 0.0052 -0.7071
vn 0.7071 0.0000 0.7071
vn 0.7071 0.0000 -0.7071
vn -0.7071 0.0000 -0.7071
vn -0.7071 -0.0032 0.7071
vn 0.7071 -0.0032 0.7071
vn 0.7071 -0.0032 -0.7071
# 54 vertex normals

vt 0.9952 0.9941 0.0000
vt 0.6479 0.9941 0.0000
vt 0.6479 0.0059 0.0000
vt 0.9952 0.0059 0.0000
vt 0.0046 0.0059 0.0000
vt 0.9954 0.0059 0.0000
vt 0.9954 0.9941 0.0000
vt 0.0046 0.9941 0.0000
vt 0.9634 0.0119 0.0000
vt 0.9950 0.0119 0.0000
vt 0.9946 0.4652 0.0000
vt 0.0054 0.4652 0.0000
vt 0.0046 0.0119 0.0000
vt 0.3511 0.0119 0.0000
vt 0.9941 0.0119 0.0000
vt 0.9930 0.4652 0.0000
vt 0.0070 0.4652 0.0000
vt 0.0059 0.0119 0.0000
vt 0.6486 0.0119 0.0000
vt 0.9952 0.0119 0.0000
vt 0.0361 0.0119 0.0000
vt 0.0013 0.9637 0.0000
vt 0.0013 0.0363 0.0000
vt 0.0370 0.0000 0.0000
vt 0.0370 0.9941 0.0000
vt 0.6864 0.0000 0.0000
vt 0.4405 0.0000 0.0000
vt 0.5595 0.0000 0.0000
vt 0.6479 1.0000 0.0000
vt 0.6479 0.0000 0.0000
vt 0.6479 0.2988 0.0000
vt 0.0370 0.7012 0.0000
vt 0.9637 0.5375 0.0000
vt 0.0363 0.5375 0.0000
vt 0.0363 0.4679 0.0000
vt 0.9637 0.4679 0.0000
vt 0.9954 0.9881 0.0000
vt 0.0046 0.9881 0.0000
vt 0.0054 0.5402 0.0000
vt 0.9946 0.5402 0.0000
vt 0.9941 0.9881 0.0000
vt 0.0059 0.9881 0.0000
vt 0.0070 0.5402 0.0000
vt 0.9930 0.5402 0.0000
vt 0.9637 0.4652 0.0000
vt 0.0363 0.4652 0.0000
vt 0.0363 0.5402 0.0000
vt 0.9637 0.5402 0.0000
vt 0.0370 1.0000 0.0000
# 49 texture coords

g obj_03
s 2
f 1/1/1 2/2/1 3/3/1 4/4/1 
s 4
f 5/5/2 6/6/2 7/7/2 8/8/2 
s 8
f 9/9/3 10/10/3 11/11/3 12/12/3 13/13/3 14/14/3 
s 16
f 15/15/4 16/16/4 17/17/4 18/18/4 
s 32
f 19/19/5 20/20/5 21/11/5 22/12/5 23/13/5 24/21/5 
s 64
f 25/15/6 26/16/6 27/17/6 28/18/6 
s 2
f 29/22/7 30/23/7 31/24/7 32/25/7 
s off
f 31/26/8 33/27/8 34/28/8 35/24/8 
f 3/3/9 2/2/9 36/29/9 37/29/9 34/28/9 33/30/9 
f 36/31/10 32/25/10 38/32/10 37/29/10 
f 32/25/7 31/24/7 35/24/7 38/32/7 
s 8
f 39/33/3 40/34/3 41/35/3 42/36/3 
s 16
f 43/33/4 44/34/4 45/35/4 46/36/4 
s 32
f 47/33/5 48/34/5 49/35/5 50/36/5 
s 64
f 51/33/6 52/34/6 53/35/6 54/36/6 
s 8
f 55/37/3 56/38/3 57/39/3 58/40/3 
s 16
f 59/41/4 60/42/4 61/43/4 62/44/4 
s 32
f 63/37/5 64/38/5 65/39/5 66/40/5 
s 64
f 67/41/6 68/42/6 69/43/6 70/44/6 
s off
f 12/12/9 11/11/9 71/45/9 72/46/9 
f 17/17/11 16/16/11 73/45/11 74/46/11 
f 22/12/9 21/11/9 75/45/9 76/46/9 
f 27/17/11 26/16/11 77/45/11 78/46/11 
f 58/40/2 57/39/2 79/47/2 80/48/2 
f 70/44/12 69/43/12 81/47/12 82/48/12 
f 66/40/2 65/39/2 83/47/2 84/48/2 
f 62/44/12 61/43/12 85/47/12 86/48/12 
f 4/4/13 13/13/13 25/15/13 
f 18/18/14 10/10/14 30/23/14 
f 28/18/15 20/20/15 1/1/15 
f 29/22/16 23/13/16 15/15/16 
f 5/5/17 67/41/17 56/38/17 
f 55/37/18 60/42/18 6/6/18 
f 8/8/19 63/37/19 68/42/19 
f 59/41/20 64/38/20 7/7/20 
f 19/19/21 36/29/21 2/2/21 
f 3/3/22 33/27/22 14/14/22 
f 72/46/23 41/35/23 54/36/23 77/45/23 
f 74/46/24 45/35/24 42/36/24 71/45/24 
f 76/46/25 49/35/25 46/36/25 73/45/25 
f 78/46/26 53/35/26 50/36/26 75/45/26 
f 80/48/27 39/33/27 44/34/27 85/47/27 
f 82/48/28 51/33/28 40/34/28 79/47/28 
f 84/48/29 47/33/29 52/34/29 81/47/29 
f 86/48/30 43/33/30 48/34/30 83/47/30 
f 4/4/31 25/15/31 28/18/31 1/1/31 
f 1/1/32 20/20/32 19/19/32 2/2/32 
f 29/22/33 15/15/33 18/18/33 30/23/33 
f 30/23/22 10/10/22 9/9/22 31/24/22 
f 5/5/34 56/38/34 55/37/34 6/6/34 
f 6/6/35 60/42/35 59/41/35 7/7/35 
f 7/7/36 64/38/36 63/37/36 8/8/36 
f 8/8/37 68/42/37 67/41/37 5/5/37 
f 10/10/38 18/18/38 17/17/38 11/11/38 
f 56/38/39 67/41/39 70/44/39 57/39/39 
f 15/15/40 23/13/40 22/12/40 16/16/40 
f 20/20/41 28/18/41 27/17/41 21/11/41 
f 32/25/21 24/21/21 23/13/21 29/22/21 
f 31/24/42 9/9/42 14/14/42 33/27/42 
f 36/29/43 19/19/43 24/21/43 32/25/43 
f 3/3/44 14/14/44 13/13/44 4/4/44 
f 87/24/45 35/24/45 34/28/45 88/30/45 
f 88/30/33 34/28/33 37/29/33 89/29/33 
f 89/29/46 37/29/46 38/32/46 90/49/46 
f 90/49/31 38/32/31 35/24/31 87/24/31 
f 42/36/47 45/35/47 44/34/47 39/33/47 
f 12/12/48 26/16/48 25/15/48 13/13/48 
f 46/36/49 49/35/49 48/34/49 43/33/49 
f 50/36/50 53/35/50 52/34/50 47/33/50 
f 40/34/51 51/33/51 54/36/51 41/35/51 
f 58/40/52 61/43/52 60/42/52 55/37/52 
f 62/44/53 65/39/53 64/38/53 59/41/53 
f 66/40/54 69/43/54 68/42/54 63/37/54 
f 41/35/22 72/46/22 71/45/22 42/36/22 
f 45/35/33 74/46/33 73/45/33 46/36/33 
f 49/35/21 76/46/21 75/45/21 50/36/21 
f 53/35/31 78/46/31 77/45/31 54/36/31 
f 39/33/34 80/48/34 79/47/34 40/34/34 
f 51/33/37 82/48/37 81/47/37 52/34/37 
f 47/33/36 84/48/36 83/47/36 48/34/36 
f 43/33/35 86/48/35 85/47/35 44/34/35 
f 26/16/9 12/12/9 72/46/9 77/45/9 
f 11/11/9 17/17/9 74/46/9 71/45/9 
f 16/16/9 22/12/9 76/46/9 73/45/9 
f 21/11/9 27/17/9 78/46/9 75/45/9 
f 61/43/2 58/40/2 80/48/2 85/47/2 
f 57/39/2 70/44/2 82/48/2 79/47/2 
f 69/43/2 66/40/2 84/48/2 81/47/2 
f 65/39/2 62/44/2 86/48/2 83/47/2 
# 79 polygons - 10 triangles

#
# object obj_01
#

v  5.6377 -1.6126 10.2433
v  -5.6377 -1.6126 10.2433
v  -5.6377 -1.6126 1.1695
v  5.6377 -1.6126 1.1695
v  -5.8060 -1.5198 10.4116
v  -5.7666 -1.5592 10.3721
v  5.7666 -1.5592 10.3721
v  5.8060 -1.5198 10.4116
v  -5.8060 -1.5198 1.0012
v  -5.7666 -1.5592 1.0406
v  5.8060 -1.5198 1.0012
v  5.7666 -1.5592 1.0406
v  -5.7298 -1.5838 10.3354
v  -5.6811 -1.6040 10.2866
v  5.6811 -1.6040 10.2866
v  5.7298 -1.5838 10.3354
v  -5.7298 -1.5838 1.0774
v  -5.6811 -1.6040 1.1261
v  5.7298 -1.5838 1.0774
v  5.6811 -1.6040 1.1261
v  -5.8508 -1.4343 10.4563
v  -5.8306 -1.4830 10.4362
v  5.8306 -1.4830 10.4362
v  5.8508 -1.4343 10.4563
v  -5.8508 -1.4343 0.9564
v  -5.8306 -1.4830 0.9766
v  5.8508 -1.4343 0.9564
v  5.8306 -1.4830 0.9766
v  -5.8594 -1.3909 10.4650
v  5.8594 -1.3909 10.4650
v  -5.8594 -1.3909 0.9478
v  5.8594 -1.3909 0.9478
# 32 vertices

vn 0.0737 -0.9945 0.0737
vn -0.0737 -0.9945 0.0737
vn -0.0737 -0.9945 -0.0737
vn 0.0737 -0.9945 -0.0737
vn -0.4812 -0.7328 0.4812
vn -0.3777 -0.8454 0.3777
vn 0.3777 -0.8454 0.3777
vn 0.4812 -0.7328 0.4812
vn -0.4812 -0.7328 -0.4812
vn -0.3777 -0.8454 -0.3777
vn 0.4812 -0.7328 -0.4812
vn 0.3777 -0.8454 -0.3777
vn -0.2742 -0.9217 0.2742
vn -0.1729 -0.9696 0.1729
vn 0.1729 -0.9696 0.1729
vn 0.2742 -0.9217 0.2742
vn -0.2742 -0.9217 -0.2742
vn -0.1729 -0.9696 -0.1729
vn 0.2742 -0.9217 -0.2742
vn 0.1729 -0.9696 -0.1729
vn -0.6564 -0.3718 0.6564
vn -0.5780 -0.5760 0.5780
vn 0.5780 -0.5760 0.5780
vn 0.6564 -0.3718 0.6564
vn -0.6564 -0.3718 -0.6564
vn -0.5780 -0.5760 -0.5780
vn 0.6564 -0.3718 -0.6564
vn 0.5780 -0.5760 -0.5780
vn -0.6807 -0.2708 0.6807
vn 0.6807 -0.2708 0.6807
vn -0.6807 -0.2708 -0.6807
vn 0.6807 -0.2708 -0.6807
# 32 vertex normals

vt 0.0512 0.9811 0.0000
vt 0.0512 0.0189 0.0000
vt 0.6337 0.0189 0.0000
vt 0.6337 0.9811 0.0000
vt 0.0404 0.0046 0.0000
vt 0.0429 0.0079 0.0000
vt 0.0429 0.9921 0.0000
vt 0.0404 0.9954 0.0000
vt 0.6445 0.0046 0.0000
vt 0.6420 0.0079 0.0000
vt 0.6445 0.9954 0.0000
vt 0.6420 0.9921 0.0000
vt 0.0453 0.0111 0.0000
vt 0.0484 0.0152 0.0000
vt 0.0484 0.9848 0.0000
vt 0.0453 0.9889 0.0000
vt 0.6396 0.0111 0.0000
vt 0.6365 0.0152 0.0000
vt 0.6396 0.9889 0.0000
vt 0.6365 0.9848 0.0000
vt 0.0375 0.0007 0.0000
vt 0.0388 0.0025 0.0000
vt 0.0388 0.9975 0.0000
vt 0.0375 0.9993 0.0000
vt 0.6474 0.0007 0.0000
vt 0.6461 0.0025 0.0000
vt 0.6474 0.9993 0.0000
vt 0.6461 0.9975 0.0000
vt 0.0370 0.0000 0.0000
vt 0.0370 1.0000 0.0000
vt 0.6479 0.0000 0.0000
vt 0.6479 1.0000 0.0000
# 32 texture coords

g obj_01
s 1
f 91/50/55 92/51/56 93/52/57 94/53/58 
f 95/54/59 96/55/60 97/56/61 98/57/62 
f 99/58/63 100/59/64 96/55/60 95/54/59 
f 101/60/65 102/61/66 100/59/64 99/58/63 
f 98/57/62 97/56/61 102/61/66 101/60/65 
f 103/62/67 104/63/68 105/64/69 106/65/70 
f 107/66/71 108/67/72 104/63/68 103/62/67 
f 109/68/73 110/69/74 108/67/72 107/66/71 
f 106/65/70 105/64/69 110/69/74 109/68/73 
f 111/70/75 112/71/76 113/72/77 114/73/78 
f 115/74/79 116/75/80 112/71/76 111/70/75 
f 117/76/81 118/77/82 116/75/80 115/74/79 
f 114/73/78 113/72/77 118/77/82 117/76/81 
f 104/63/68 92/51/56 91/50/55 105/64/69 
f 108/67/72 93/52/57 92/51/56 104/63/68 
f 110/69/74 94/53/58 93/52/57 108/67/72 
f 105/64/69 91/50/55 94/53/58 110/69/74 
f 112/71/76 95/54/59 98/57/62 113/72/77 
f 116/75/80 99/58/63 95/54/59 112/71/76 
f 118/77/82 101/60/65 99/58/63 116/75/80 
f 113/72/77 98/57/62 101/60/65 118/77/82 
f 96/55/60 103/62/67 106/65/70 97/56/61 
f 100/59/64 107/66/71 103/62/67 96/55/60 
f 102/61/66 109/68/73 107/66/71 100/59/64 
f 97/56/61 106/65/70 109/68/73 102/61/66 
f 119/78/83 111/70/75 114/73/78 120/79/84 
f 121/80/85 115/74/79 111/70/75 119/78/83 
f 122/81/86 117/76/81 115/74/79 121/80/85 
f 120/79/84 114/73/78 117/76/81 122/81/86 
# 29 polygons

#
# object obj_02
#

v  0.5136 -3.4057 -11.3373
v  0.5136 -2.6228 -1.6799
v  -0.5136 -2.6228 -1.6799
v  -0.5136 -3.4057 -11.3373
v  0.5136 -2.5396 -1.6032
v  0.5136 -1.7052 -1.6032
v  -0.5136 -1.7052 -1.6032
v  -0.5136 -2.5396 -1.6032
v  0.5136 0.0589 -4.7186
v  0.5136 0.0589 -11.3371
v  -0.5136 0.0589 -11.3371
v  -0.5136 0.0589 -4.7186
v  0.5136 -0.0180 -11.4140
v  0.5136 -3.3349 -11.4140
v  -0.5136 -3.3349 -11.4140
v  -0.5136 -0.0180 -11.4140
v  0.5906 -0.0180 -11.3371
v  0.5906 -0.0180 -4.7186
v  0.5906 -1.7052 -4.7186
v  0.5906 -1.7052 -1.6802
v  0.5906 -2.5456 -1.6802
v  0.5906 -3.3284 -11.3371
v  -0.5906 -2.5456 -1.6802
v  -0.5906 -1.7052 -1.6802
v  -0.5906 -1.7052 -4.7186
v  -0.5906 -0.0180 -4.7186
v  -0.5906 -0.0180 -11.3371
v  -0.5905 -3.3284 -11.3371
v  0.5136 -1.6282 -1.6802
v  0.5136 -1.5513 -4.6417
v  0.5136 -1.6282 -4.5647
v  0.5136 -0.0180 -4.6417
v  -0.5136 -1.6282 -1.6802
v  -0.5136 -1.5513 -4.6417
v  -0.5136 -1.6282 -4.5647
v  -0.5136 -0.0180 -4.6417
# 36 vertices

vn 0.0000 -0.9967 0.0808
vn -0.0000 -0.0000 1.0000
vn -0.0000 1.0000 0.0000
vn 0.0000 0.0000 -1.0000
vn 1.0000 0.0000 0.0000
vn -1.0000 -0.0000 -0.0000
vn 0.5948 -0.5909 -0.5450
vn 0.5637 -0.5600 0.6072
vn 0.5774 0.5774 0.5774
vn 0.9045 0.3015 0.3015
vn 0.5774 0.5774 -0.5774
vn -0.5948 -0.5909 -0.5450
vn -0.5637 -0.5600 0.6072
vn -0.5774 0.5774 0.5773
vn -0.9045 0.3015 0.3015
vn -0.5774 0.5773 0.5773
vn -0.5774 0.5773 -0.5774
vn 0.7071 -0.7048 0.0571
vn -0.0000 -0.6779 0.7351
vn -0.7071 -0.7048 0.0571
vn 0.0000 -0.7351 -0.6779
vn 0.7071 -0.0000 0.7071
vn -0.0000 0.7071 0.7071
vn -0.7071 -0.0000 0.7071
vn 0.7071 0.7071 0.0000
vn 0.0000 0.7071 -0.7071
vn -0.7071 0.7071 -0.0000
vn 0.7071 0.0000 -0.7071
vn -0.7071 0.0000 -0.7071
# 29 vertex normals

g obj_02
s 1
f 123//87 124//87 125//87 126//87 
s 4
f 127//88 128//88 129//88 130//88 
s 2
f 131//89 132//89 133//89 134//89 
s 4
f 135//90 136//90 137//90 138//90 
s 16
f 139//91 140//91 141//91 142//91 143//91 144//91 
f 145//92 146//92 147//92 148//92 149//92 150//92 
s off
f 123//93 136//93 144//93 
f 143//94 127//94 124//94 
f 142//95 151//95 128//95 
f 141//96 152//96 153//96 
f 140//95 131//95 154//95 
f 135//97 132//97 139//97 
f 126//98 150//98 137//98 
f 130//99 145//99 125//99 
f 155//100 146//100 129//100 
f 156//101 147//101 157//101 
f 134//102 148//102 158//102 
f 138//103 149//103 133//103 
f 143//104 124//104 123//104 144//104 
f 130//105 125//105 124//105 127//105 
f 150//106 126//106 125//106 145//106 
f 136//107 123//107 126//107 137//107 
f 142//108 128//108 127//108 143//108 
f 155//109 129//109 128//109 151//109 
f 145//110 130//110 129//110 146//110 
f 134//109 158//109 154//109 131//109 
f 139//111 132//111 131//111 140//111 
f 138//112 133//112 132//112 135//112 
f 148//113 134//113 133//113 149//113 
f 144//114 136//114 135//114 139//114 
f 149//115 138//115 137//115 150//115 
# 19 polygons - 12 triangles

