# 3ds Max Wavefront OBJ Exporter v0.97b - (c)2007 guruware
# File Created: 27.01.2018 04:24:51

#
# object Wall
#

v  -6.7282 0.0000 0.3676
v  -6.7471 0.0000 -0.3676
v  -6.9847 2.1142 -0.3676
v  -6.9657 2.1142 0.3676
v  -6.5554 4.2017 0.3676
v  -6.5744 4.2017 -0.3676
v  -5.5544 6.0687 -0.3676
v  -5.5355 6.0687 0.3676
v  -4.0195 7.5419 -0.3676
v  -4.0005 7.5419 0.3676
v  -2.0932 8.4843 0.3676
v  -2.1121 8.4843 -0.3676
v  0.0095 8.8085 0.3676
v  -0.0095 8.8085 -0.3676
v  2.0932 8.4843 -0.3676
v  2.1121 8.4843 0.3676
v  4.0005 7.5419 -0.3676
v  4.0195 7.5419 0.3676
v  5.5355 6.0687 -0.3676
v  5.5544 6.0687 0.3676
v  6.5554 4.2017 -0.3676
v  6.5744 4.2017 0.3676
v  6.9657 2.1142 -0.3676
v  6.9847 2.1142 0.3676
v  6.7282 0.0000 -0.3676
v  6.7471 0.0000 0.3676
# 26 vertices

vn 0.9934 0.1116 -0.0256
vn 0.9809 -0.1928 -0.0253
vn 0.8774 -0.4793 -0.0226
vn 0.6923 -0.7214 -0.0178
vn 0.4429 -0.8965 -0.0114
vn 0.1524 -0.9883 -0.0039
vn -0.1524 -0.9883 0.0039
vn -0.4429 -0.8965 0.0114
vn -0.6923 -0.7214 0.0178
vn -0.8774 -0.4793 0.0226
vn -0.9809 -0.1928 0.0253
vn -0.9934 0.1116 0.0256
# 12 vertex normals

vt 340.8409 -20.7736 0.0000
vt 340.8409 21.7737 0.0000
vt 284.0396 21.7737 0.0000
vt 284.0685 -20.7736 0.0000
vt 227.2383 -20.7736 0.0000
vt 227.2383 21.7737 0.0000
vt 170.4369 21.7737 0.0000
vt 170.4369 -20.7736 0.0000
vt 113.6355 21.7737 0.0000
vt 113.6355 -20.7736 0.0000
vt 56.8341 -20.7737 0.0000
vt 56.8341 21.7737 0.0000
vt 0.0328 -20.7737 0.0000
vt 0.0327 21.7737 0.0000
vt -56.7685 21.7737 0.0000
vt -56.7685 -20.7737 0.0000
vt -113.5699 21.7737 0.0000
vt -113.5699 -20.7737 0.0000
vt -170.3713 21.7737 0.0000
vt -170.3712 -20.7737 0.0000
vt -227.1727 21.7737 0.0000
vt -227.1727 -20.7737 0.0000
vt -283.9740 21.7737 0.0000
vt -283.9742 -20.7737 0.0000
vt -340.7753 21.7737 0.0000
vt -340.7753 -20.7737 0.0000
# 26 texture coords

g Wall
s off
f 1/1/1 2/2/1 3/3/1 4/4/1 
f 5/5/2 4/4/2 3/3/2 6/6/2 
f 6/6/3 7/7/3 8/8/3 5/5/3 
f 9/9/4 10/10/4 8/8/4 7/7/4 
f 11/11/5 10/10/5 9/9/5 12/12/5 
f 13/13/6 11/11/6 12/12/6 14/14/6 
f 15/15/7 16/16/7 13/13/7 14/14/7 
f 17/17/8 18/18/8 16/16/8 15/15/8 
f 19/19/9 20/20/9 18/18/9 17/17/9 
f 21/21/10 22/22/10 20/20/10 19/19/10 
f 23/23/11 24/24/11 22/22/11 21/21/11 
f 25/25/12 26/26/12 24/24/12 23/23/12 
# 12 polygons

